<svg xmlns="http://www.w3.org/2000/svg" width="70" height="50" viewBox="0 0 70 50">
    <g fill="#574227" fill-rule="evenodd">
        <path d="M57.006 39.001c-.275 0-.55-.103-.766-.31L43.362 26.35a1.159 1.159 0 0 1-.049-1.613 1.098 1.098 0 0 1 1.583-.05l12.878 12.338c.45.43.472 1.154.049 1.614-.222.24-.517.361-.817.361zM14.019 39.001c-.298 0-.596-.121-.817-.361-.423-.46-.4-1.184.05-1.614l12.882-12.338a1.104 1.104 0 0 1 1.582.05c.423.46.4 1.184-.05 1.614L14.785 38.69c-.215.208-.49.311-.765.311z"/>
        <path fill-rule="nonzero" d="M64.357 49.121H5.643C2.533 49.121 0 46.63 0 43.565V5.677C0 2.612 2.533.121 5.643.121h58.714C67.467.121 70 2.612 70 5.677v37.888c0 3.065-2.533 5.556-5.643 5.556zM5.643 2.344c-1.867 0-3.386 1.495-3.386 3.333v37.888c0 1.838 1.52 3.333 3.386 3.333h58.714c1.867 0 3.386-1.495 3.386-3.333V5.677c0-1.838-1.52-3.333-3.386-3.333H5.643z"/>
        <path d="M35.019 29.121c-1.524 0-3.047-.486-4.207-1.455L1.393 3.046a1.07 1.07 0 0 1-.112-1.55 1.187 1.187 0 0 1 1.617-.106l29.42 24.617c1.464 1.224 3.938 1.224 5.4 0L67.101 1.429a1.18 1.18 0 0 1 1.617.106 1.07 1.07 0 0 1-.11 1.551L39.226 27.664c-1.162.971-2.683 1.457-4.207 1.457z"/>
    </g>
</svg>
