<svg xmlns="http://www.w3.org/2000/svg" width="45" height="71" viewBox="0 0 45 71">
    <g fill="#574227" fill-rule="evenodd">
        <path d="M22.5.121C10.093.121 0 10.285 0 22.777 0 33.95 7.696 48.593 14.152 58.911c.416.665 1.29.865 1.95.446.661-.42.86-1.3.443-1.965C5.21 39.275 2.83 28.568 2.83 22.777 2.83 11.856 11.654 2.97 22.5 2.97c10.846 0 19.67 8.885 19.67 19.807 0 17.737-20.581 44.778-20.79 45.049a1.431 1.431 0 0 0 .255 1.998 1.409 1.409 0 0 0 1.984-.256C24.494 68.43 45 41.486 45 22.777 45 10.284 34.906.12 22.5.12z"/>
        <path d="M23 14.95a1.414 1.414 0 0 0 0-2.829c-5.514 0-10 4.486-10 10s4.486 10 10 10 10-4.486 10-10a9.912 9.912 0 0 0-2.03-6.042 1.414 1.414 0 0 0-2.254 1.71 7.106 7.106 0 0 1 1.456 4.332c0 3.955-3.217 7.172-7.172 7.172-3.955 0-7.172-3.217-7.172-7.172 0-3.954 3.218-7.172 7.172-7.172z"/>
    </g>
</svg>
